{
    "message":"Success get Data",
    "code": 200
    "data":[
      {{# repeat (queryParam 'total' '10') }}
        {
          "userId": "{{ faker 'random.number' min=10000 max=100000 }}",
          "title": "{{ faker 'lorem.word' }}",
          "article": "{{ faker 'lorem.paragraphs' }}",
          "comments": [
            {{# repeat (faker 'random.number' 15) }}
              {
                "idComment": "{{ faker 'random.uuid' }}",
                "idUser": "{{ faker 'random.uuid' }}",
                "name": "{{faker 'name.firstName'}}",
                "text": "{{faker 'lorem.text'}}",
                "datetime" : "{{faker 'date.recent'}}"
              }
            {{/ repeat }}
          ]
        },
      {{/ repeat }}
      ]
  }